<?xml version="1.0" encoding="utf-8"?>
<!-- Generator: Adobe Illustrator 19.0.0, SVG Export Plug-In . SVG Version: 6.00 Build 0)  -->
<svg version="1.1" id="Layer_1" xmlns="http://www.w3.org/2000/svg" xmlns:xlink="http://www.w3.org/1999/xlink" x="0px" y="0px"
	 viewBox="0 0 582.6 70.8" style="enable-background:new 0 0 582.6 70.8;" xml:space="preserve">
<style type="text/css">
	.st0{fill:#FFFFFF;}
</style>
<g id="XMLID_1205_">
	<g id="XMLID_1808_">
		<path id="XMLID_1871_" class="st0" d="M345.8,52.4c-2.7,0.9-4.4,1.1-7.2,1.1c-7.7,0-12-5-12-13.3c0-8.6,4.5-21.9,17.6-21.9
			c2.8,0,4.5,0.5,7,1.4l1.9,0.7c0.3,0.1,0.3,0.3,0.2,0.6l-1,2c-0.1,0.2-0.3,0.3-0.6,0.2l-1.9-0.7c-2-0.7-3.4-1-5.8-1
			c-10.4,0-13.9,11.6-13.9,18.8c0,6.6,3.1,10.2,9,10.2c2.3-0.1,4-0.2,6.3-1l2.2-0.7c0.3-0.1,0.5,0,0.5,0.3l0.4,2.1
			c0.1,0.2,0,0.4-0.3,0.5L345.8,52.4z"/>
		<path id="XMLID_1868_" class="st0" d="M373.6,18.9c6.9,0,10.5,3.7,9.7,10c-0.8,7.2-6.9,11-16.5,11h-5.7L359,52.7
			c0,0.2-0.2,0.4-0.4,0.4h-2.4c-0.3,0-0.4-0.2-0.4-0.5l5.4-33.3c0-0.2,0.2-0.4,0.4-0.4H373.6z M361.6,36.9h5.5
			c7.4,0,12.3-2.8,12.9-8c0.6-4.5-1.9-7.1-6.8-7.1H364L361.6,36.9z"/>
		<path id="XMLID_1865_" class="st0" d="M389.1,44.4l-4.9,8.4c-0.1,0.2-0.3,0.3-0.5,0.3H381c-0.4,0-0.5-0.2-0.3-0.5l14.5-24.7
			c1.6-2.8,3.2-5.9,4.4-8.6c0.1-0.2,0.2-0.3,0.5-0.3h2.9c0.3,0,0.4,0.1,0.5,0.4c0.3,2.7,0.8,5.8,1.4,8.5l5.9,24.7
			c0.1,0.3-0.1,0.5-0.4,0.5H408c-0.2,0-0.4-0.2-0.5-0.4l-1.9-8.3H389.1z M404.8,41.4l-2.6-11c-0.5-2.2-0.8-4.9-0.9-6.6
			c0-0.4-0.4-0.4-0.6,0c-0.6,1.7-1.9,4.3-3.3,6.6l-6.5,11H404.8z"/>
		<path id="XMLID_1863_" class="st0" d="M499.2,44.2c-1.6,2.7-3.3,6.1-4.4,8.5c-0.1,0.2-0.2,0.3-0.5,0.3h-2.7
			c-0.3,0-0.4-0.2-0.5-0.4c-0.3-2.5-0.8-5.8-1.5-8.5l-4.2-14.4c-0.1-0.3,0.1-0.5,0.4-0.5h2.4c0.2,0,0.4,0.1,0.5,0.4l3.7,12.4
			c0.5,2.2,0.8,4.5,0.9,6c0.1,0.4,0.5,0.4,0.7,0c0.5-1.5,1.6-3.8,2.9-6l7.7-12.5c0.2-0.2,0.3-0.3,0.5-0.3h2.5c0.4,0,0.5,0.2,0.3,0.5
			L499.2,44.2z"/>
		<path id="XMLID_1860_" class="st0" d="M514.8,52.7c-0.1,0.2-0.2,0.4-0.5,0.4h-2.3c-0.3,0-0.4-0.2-0.4-0.5l3.3-20.4h-2.2
			c-0.3,0-0.4-0.2-0.4-0.5l0.3-2c0-0.2,0.2-0.4,0.4-0.4h5.1c0.3,0,0.4,0.2,0.4,0.5L514.8,52.7z M520.2,19.5c0,1.7-0.8,2.5-2.3,2.5
			c-1.3,0-2-0.7-2-1.9c0-1.6,0.9-2.5,2.3-2.5C519.5,17.7,520.2,18.4,520.2,19.5z"/>
		<path id="XMLID_1858_" class="st0" d="M575.3,44.9c-1.4,2.9-2.5,5.4-3.5,7.8c-0.1,0.2-0.2,0.3-0.5,0.3h-2.7
			c-0.3,0-0.4-0.2-0.5-0.4c-0.2-1.9-0.5-4.2-0.8-6.2l-1.7-8.4c-0.1-0.7-0.3-2.1-0.3-2.7c0-0.6-0.4-0.5-0.6,0c-0.2,0.6-0.8,2-1.2,2.7
			l-4.3,8.4c-1,2-2.1,4.3-2.9,6.2c-0.1,0.2-0.2,0.3-0.5,0.3h-2.8c-0.3,0-0.4-0.2-0.5-0.4c-0.2-2.4-0.5-4.8-0.9-7.7L549,29.8
			c0-0.3,0.2-0.5,0.4-0.5h2.3c0.2,0,0.4,0.2,0.4,0.4l2,12.6c0.3,2.4,0.4,4.3,0.5,5.9c0.1,0.4,0.4,0.4,0.6,0c0.7-1.6,1.8-3.9,2.9-6.2
			l6.3-12.3c0.1-0.2,0.3-0.3,0.5-0.3h1.5c0.2,0,0.4,0.2,0.5,0.4l2.4,12.2c0.3,2.4,0.6,4.6,0.7,6.2c0.1,0.4,0.5,0.4,0.6,0
			c0.6-1.6,1.4-3.5,2.5-5.9l6-12.6c0.1-0.2,0.2-0.3,0.5-0.3h2.5c0.3,0,0.5,0.2,0.3,0.5L575.3,44.9z"/>
		<path id="XMLID_1855_" class="st0" d="M447.2,37.8c0.4-0.1,0.7-0.2,1-0.3c5.9-2.3,7.9-5.9,7.9-10.7c0-4.9-3.1-7.8-9-7.8h-13.1
			c-0.2,0-0.4,0.1-0.4,0.4l-5.4,33.3c0,0.3,0.1,0.5,0.4,0.5h2.4c0.2,0,0.4-0.1,0.4-0.4l2.3-14.2h5.7c1.8-0.1,3.4-0.2,4.8-0.3
			l8.6,14.4c0.2,0.3,0.2,0.4,0.5,0.4h2.5c0.3,0,0.4-0.2,0.3-0.5L447.2,37.8z M434.1,35.5l2.2-13.7h10.3c4,0,6.1,1.9,6.1,5.3
			c0,4.5-3.6,8.4-12,8.4H434.1z"/>
		<g id="XMLID_1842_">
			<path id="XMLID_1851_" class="st0" d="M459.5,53.6"/>
		</g>
		<path id="XMLID_1835_" class="st0" d="M480.4,37.7c-0.3-2.2-1.9-8.4-8.1-8.6c-9.4-0.2-12.9,8.9-12.9,15.1c0,6,5.1,9.7,11.1,9.2
			c3.9-0.3,4.8-1.1,6.1-1.9c1.8-1.1,2.6-2.3,4.1-4c0.2-0.2,0.1-0.5-0.1-0.6l-1.7-1.2c-0.3-0.2-0.4-0.1-0.6,0.1
			c-0.9,1.4-2.2,2.6-3.7,3.4c-1.4,0.8-3,1.2-3.9,1.2c-4.1,0.1-8-2.1-7.9-6.2l17.3-5.7c0.2-0.1,0.3-0.1,0.4-0.3
			C480.5,38.2,480.5,38,480.4,37.7z M472.2,32.1c1.3,0.2,2.1,0.6,2.8,1.3c0.8,0.8,1.5,2.1,2.1,3.5l-14.2,4.7
			C464.1,35.3,467.6,31.5,472.2,32.1z"/>
		<path id="XMLID_1830_" class="st0" d="M543.8,37.7c-0.3-2.2-1.9-8.4-8.1-8.6c-9.4-0.2-12.9,8.9-12.9,15.1c0,6,5.1,9.7,11.1,9.2
			c3.9-0.3,4.8-1.1,6.1-1.9c1.8-1.1,2.6-2.3,4.1-4c0.2-0.2,0.1-0.5-0.1-0.6l-1.7-1.2c-0.3-0.2-0.4-0.1-0.6,0.1
			c-0.9,1.4-2.2,2.6-3.7,3.4c-1.4,0.8-3,1.2-3.9,1.2c-4.1,0.1-8-2.1-7.9-6.2l17.3-5.7c0.2-0.1,0.3-0.1,0.4-0.3
			C543.8,38.2,543.8,38,543.8,37.7z M535.6,32.1c1.3,0.2,2.1,0.6,2.8,1.3c0.8,0.8,1.5,2.1,2.1,3.5l-14.2,4.7
			C527.5,35.3,530.9,31.5,535.6,32.1z"/>
	</g>
	<g id="XMLID_1772_">
		<path id="XMLID_1785_" class="st0" d="M24.1,33.5c14.7,0,22.8-12.1,24-18.6C48.9,10.1,50,3.9,44.4,0H23.2C16,0,9.2,5.8,8,13
			L4.4,33.5H24.1z"/>
		<path id="XMLID_1784_" class="st0" d="M68,0H57.8c2,5.7,1,11.7,0.4,14.8c-1.6,9.1-9.7,20.8-22.2,26.1l17.3,29.9h2.5
			c7.2,0,14-5.8,15.2-13L78.7,13C80,5.8,75.2,0,68,0z"/>
		<path id="XMLID_1773_" class="st0" d="M24.8,43.5c-0.8,0.1-1.7,0.1-2.5,0.1H2.7L0.2,57.8c-1.2,7.2,3.6,13,10.7,13h29.7L24.8,43.5z
			"/>
	</g>
	<g id="XMLID_1512_">
		<path id="XMLID_1754_" class="st0" d="M166.5,30.7c0,10.3-5.7,25.8-21.4,25.8c-9.6,0-15.1-6.1-15.1-15.9
			c0-10.3,5.6-25.6,21.4-25.6C161,14.8,166.5,20.8,166.5,30.7z M137.9,40.3c0,5.7,2.6,9.1,7.5,9.1c9.6,0,13.1-11.6,13.1-18.4
			c0-5.8-2.6-9-7.5-9C141.4,21.9,137.9,33.3,137.9,40.3z"/>
		<path id="XMLID_1730_" class="st0" d="M203.2,33.7c0.5,0,0.7,0.3,0.6,0.7l-3.1,18c-0.1,0.4-0.3,0.6-0.6,0.8l-2.4,0.8l-3.4,1.3
			c-2.7,0.8-5.2,1.1-8.5,1.1c-9.8,0-15.3-6.1-15.3-15.9c0-10.3,5.7-25.6,21.6-25.6c3.4,0,5.5,0.4,8.4,1.4l2.5,0.9
			c0.5,0.1,0.6,0.5,0.3,0.9l-2.7,5.2c-0.2,0.4-0.5,0.5-0.9,0.3l-2.2-0.7c-1.9-0.7-3.6-0.9-5.8-0.9c-9.8,0-13.3,11.4-13.3,18.3
			c0,5.8,2.7,9.1,7.7,9.1c2.5,0,4.5-0.3,6.4-0.9l1.4-0.4l1.3-7.3h-6.5c-0.5,0-0.7-0.3-0.5-0.8l2.6-5.6c0.2-0.3,0.4-0.5,0.8-0.5
			H203.2z"/>
		<path id="XMLID_1726_" class="st0" d="M233.9,31.6c0.5,0,0.7,0.3,0.6,0.7l-1,5.6c-0.1,0.4-0.3,0.6-0.7,0.6h-15.1L216,48.9h19.6
			c0.5,0,0.7,0.3,0.6,0.7l-1,5.6c-0.1,0.4-0.3,0.6-0.7,0.6h-26.9c-0.5,0-0.7-0.3-0.6-0.7l6.8-39c0.1-0.4,0.3-0.6,0.7-0.6h27
			c0.5,0,0.7,0.3,0.5,0.8l-2.6,5.6c-0.2,0.3-0.4,0.5-0.8,0.5h-18.1l-1.5,9.2H233.9z"/>
		<path id="XMLID_1725_" class="st0" d="M104.2,15.4"/>
		<path id="XMLID_1631_" class="st0" d="M119.8,38.1c4.8-2.5,6.1-6.6,6.1-12.8c0-6.3-3.9-9.9-11.7-9.9H98.4c-0.4,0-0.7,0.2-0.7,0.6
			l-6.8,39c-0.1,0.5,0.2,0.7,0.6,0.7h6.5c0.4,0,0.7-0.2,0.7-0.6l2.5-14.3h2.9c1.7,0,3.4-0.1,5-0.2l8.8,14.6c0.3,0.4,0.3,0.6,0.7,0.6
			h6.5c0.5,0,0.7-0.3,0.6-0.7l-9.5-15.6C117.6,39.1,118.8,38.6,119.8,38.1z M102.5,33.8l2-11.5h8.5c3.1,0,5,1.8,5,4.8
			c0,3.9-1.5,6.5-9.5,6.7H102.5z"/>
		<path id="XMLID_1628_" class="st0" d="M270.1,38.1c4.8-2.5,6.1-6.6,6.1-12.8c0-6.3-3.9-9.9-11.7-9.9h-15.8c-0.4,0-0.7,0.2-0.7,0.6
			l-6.8,39c-0.1,0.5,0.2,0.7,0.6,0.7h6.5c0.4,0,0.7-0.2,0.7-0.6l2.5-14.3h2.9c1.7,0,3.4-0.1,5-0.2l8.8,14.6c0.3,0.4,0.3,0.6,0.7,0.6
			h6.5c0.5,0,0.7-0.3,0.6-0.7l-9.5-15.6C268,39.1,269.1,38.6,270.1,38.1z M252.9,33.8l1.9-11.5h8.5c3.1,0,5,1.8,5,4.8
			c0,3.9-1.5,6.5-9.5,6.7H252.9z"/>
	</g>
	<g id="XMLID_1206_">
		<polygon id="XMLID_1207_" class="st0" points="301.8,62.1 297.6,62.1 307.1,7.6 311.4,7.7 		"/>
	</g>
</g>
</svg>
