<?xml version="1.0" encoding="utf-8"?>
<!-- Generator: Adobe Illustrator 19.0.0, SVG Export Plug-In . SVG Version: 6.00 Build 0)  -->
<svg version="1.1" id="Layer_1" xmlns="http://www.w3.org/2000/svg" xmlns:xlink="http://www.w3.org/1999/xlink" x="0px" y="0px"
	 viewBox="0 0 27.8 30" style="enable-background:new 0 0 27.8 30;" xml:space="preserve">
<style type="text/css">
	.st0{fill:#353535;}
</style>
<g id="XMLID_352_">
	<g id="XMLID_53_">
		<path id="XMLID_57_" class="st0" d="M13.4,28.3H5.6c-2.1,0-3.9-1.7-3.9-3.9V5.6c0-2.1,1.7-3.9,3.9-3.9h8c0.5,0,0.9-0.4,0.9-0.9
			S14,0,13.5,0h-8C2.5,0,0,2.5,0,5.6v18.9C0,27.5,2.5,30,5.6,30h7.8c0.5,0,0.9-0.4,0.9-0.9S13.9,28.3,13.4,28.3L13.4,28.3z
			 M13.4,28.3"/>
		<path id="XMLID_54_" class="st0" d="M27.6,14.4l-5.5-5.5c-0.3-0.3-0.9-0.3-1.2,0c-0.3,0.3-0.3,0.9,0,1.2l4,4H7.4
			c-0.5,0-0.9,0.4-0.9,0.9c0,0.5,0.4,0.9,0.9,0.9h17.5l-4,4c-0.3,0.3-0.3,0.9,0,1.2c0.2,0.2,0.4,0.3,0.6,0.3c0.2,0,0.4-0.1,0.6-0.3
			l5.5-5.5C27.9,15.3,27.9,14.7,27.6,14.4L27.6,14.4z M27.6,14.4"/>
	</g>
</g>
</svg>
